<?xml version="1.0" encoding="UTF-8"?>
<svg width="155px" height="46px" viewBox="0 0 155 46" version="1.1" xmlns="http://www.w3.org/2000/svg" xmlns:xlink="http://www.w3.org/1999/xlink">
    <!-- Generator: Sketch 40.3 (33839) - http://www.bohemiancoding.com/sketch -->
    <title>App Store</title>
    <desc>Created with Sketch.</desc>
    <defs></defs>
    <g id="Components" stroke="none" stroke-width="1" fill="none" fill-rule="evenodd">
        <g id="all" transform="translate(-1115.000000, -10.000000)">
            <g id="1">
                <g id="Menu">
                    <g id="App-Store" transform="translate(1115.000000, 10.000000)">
                        <path d="M5.42959259,46 C2.43637037,46 0,43.5528 0,40.55705 L0,5.4349 C0,2.438 2.43637037,0 5.42959259,0 L149.485444,0 C152.477519,0 155,2.438 155,5.4349 L155,40.55705 C155,43.5528 152.477519,46 149.485444,46 L5.42959259,46 Z" id="Shape" fill="#0F0F0F"></path>
                        <g id="Group" transform="translate(13.777778, 6.900000)" fill="#FFFFFF">
                            <path d="M20.8136296,15.8516 C20.7803333,12.14515 23.8435926,10.34195 23.9836667,10.258 C22.2488148,7.72455 19.5598519,7.3784 18.6149259,7.3508 C16.3565185,7.11275 14.1658519,8.70435 13.0154074,8.70435 C11.842,8.70435 10.0704074,7.3738 8.16103704,7.4129 C5.704,7.45085 3.40540741,8.8757 2.14474074,11.0883 C-0.456962963,15.59975 1.48340741,22.2295 3.97603704,25.87615 C5.22292593,27.6621 6.67992593,29.6562 8.587,29.58605 C10.4527407,29.509 11.1496667,28.39465 13.4011852,28.39465 C15.632037,28.39465 16.2864815,29.58605 18.2314444,29.5412 C20.2338148,29.509 21.4944815,27.7472 22.6977407,25.94515 C24.1386667,23.89815 24.7173333,21.8822 24.7402963,21.7787 C24.6932222,21.7626 20.8515185,20.29405 20.8136296,15.8516 L20.8136296,15.8516 Z" id="Shape"></path>
                            <path d="M17.1395556,4.9519 C18.143037,3.69495 18.8296296,1.9849 18.639037,0.24955 C17.1866296,0.31395 15.3702593,1.2558 14.3242963,2.48515 C13.3988889,3.56845 12.5722222,5.34405 12.7857778,7.01385 C14.4172963,7.13575 16.0924444,6.1893 17.1395556,4.9519 L17.1395556,4.9519 Z" id="Shape"></path>
                        </g>
                        <g id="Group" transform="translate(48.222222, 20.700000)" fill="#FFFFFF">
                            <path d="M13.3701852,15.5296 L10.7627407,15.5296 L9.33444444,11.03425 L4.36985185,11.03425 L3.0092963,15.5296 L0.470740741,15.5296 L5.38940741,0.2254 L8.42740741,0.2254 L13.3701852,15.5296 L13.3701852,15.5296 Z M8.90388889,9.14825 L7.61222222,5.152 C7.47559259,4.74375 7.21955556,3.78235 6.84181481,2.26895 L6.79588889,2.26895 C6.64548148,2.91985 6.40322222,3.88125 6.07025926,5.152 L4.80155556,9.14825 L8.90388889,9.14825 L8.90388889,9.14825 Z" id="Shape"></path>
                            <path d="M26.0193333,9.8762 C26.0193333,11.753 25.513,13.2365 24.5003333,14.32555 C23.5932963,15.295 22.466963,15.77915 21.1224815,15.77915 C19.6712222,15.77915 18.6287037,15.25705 17.9937778,14.21285 L17.9478519,14.21285 L17.9478519,20.0261 L15.5,20.0261 L15.5,8.12705 C15.5,6.94715 15.469,5.7362 15.4092963,4.4942 L17.5620741,4.4942 L17.6987037,6.24335 L17.7446296,6.24335 C18.560963,4.92545 19.7998148,4.26765 21.4623333,4.26765 C22.762037,4.26765 23.847037,4.7817 24.715037,5.81095 C25.5853333,6.84135 26.0193333,8.19605 26.0193333,9.8762 L26.0193333,9.8762 Z M23.5255556,9.9659 C23.5255556,8.8918 23.2844444,8.0063 22.7999259,7.3094 C22.2706296,6.5826 21.5599259,6.2192 20.668963,6.2192 C20.065037,6.2192 19.5162222,6.4216 19.025963,6.82065 C18.5345556,7.22315 18.2130741,7.7487 18.0626667,8.3996 C17.9868889,8.7032 17.949,8.9516 17.949,9.1471 L17.949,10.9871 C17.949,11.7898 18.1947037,12.46715 18.6861111,13.0203 C19.1775185,13.57345 19.8158889,13.84945 20.6012222,13.84945 C21.5231852,13.84945 22.2407778,13.49295 22.754,12.78225 C23.2683704,12.0704 23.5255556,11.132 23.5255556,9.9659 L23.5255556,9.9659 Z" id="Shape"></path>
                            <path d="M38.6914444,9.8762 C38.6914444,11.753 38.1851111,13.2365 37.1712963,14.32555 C36.2654074,15.295 35.1390741,15.77915 33.7945926,15.77915 C32.3433333,15.77915 31.3008148,15.25705 30.667037,14.21285 L30.6211111,14.21285 L30.6211111,20.0261 L28.1732593,20.0261 L28.1732593,8.12705 C28.1732593,6.94715 28.1422593,5.7362 28.0825556,4.4942 L30.2353333,4.4942 L30.371963,6.24335 L30.4178889,6.24335 C31.2330741,4.92545 32.4719259,4.26765 34.1355926,4.26765 C35.4341481,4.26765 36.5191481,4.7817 37.3894444,5.81095 C38.2562963,6.84135 38.6914444,8.19605 38.6914444,9.8762 L38.6914444,9.8762 Z M36.1976667,9.9659 C36.1976667,8.8918 35.9554074,8.0063 35.4708889,7.3094 C34.9415926,6.5826 34.2331852,6.2192 33.3410741,6.2192 C32.736,6.2192 32.1883333,6.4216 31.6969259,6.82065 C31.2055185,7.22315 30.8851852,7.7487 30.7347778,8.3996 C30.6601481,8.7032 30.6211111,8.9516 30.6211111,9.1471 L30.6211111,10.9871 C30.6211111,11.7898 30.8668148,12.46715 31.3559259,13.0203 C31.8473333,13.5723 32.4857037,13.84945 33.2733333,13.84945 C34.1952963,13.84945 34.9128889,13.49295 35.4261111,12.78225 C35.9404815,12.0704 36.1976667,11.132 36.1976667,9.9659 L36.1976667,9.9659 Z" id="Shape"></path>
                            <path d="M52.8595926,11.2378 C52.8595926,12.5396 52.4083704,13.59875 51.5024815,14.4164 C50.507037,15.30995 49.1212222,15.75615 47.3404444,15.75615 C45.6962963,15.75615 44.3782222,15.43875 43.3804815,14.8028 L43.9476667,12.75925 C45.0223333,13.41015 46.2014815,13.73675 47.4862593,13.73675 C48.4082222,13.73675 49.1258148,13.52745 49.6413333,13.11115 C50.1545556,12.69485 50.4105926,12.13595 50.4105926,11.43905 C50.4105926,10.81805 50.1993333,10.2948 49.7756667,9.87045 C49.3542963,9.4461 48.6504815,9.05165 47.6676667,8.6871 C44.9924815,7.68775 43.656037,6.2238 43.656037,4.2987 C43.656037,3.0406 44.1244815,2.00905 45.0625185,1.20635 C45.9971111,0.4025 47.244,0.00115 48.8031852,0.00115 C50.1935926,0.00115 51.3486296,0.2438 52.2705926,0.72795 L51.6586296,2.72665 C50.7975185,2.25745 49.8238889,2.02285 48.7342963,2.02285 C47.8731852,2.02285 47.2003704,2.2356 46.7181481,2.6588 C46.3105556,3.03715 46.1061852,3.4983 46.1061852,4.04455 C46.1061852,4.64945 46.3392593,5.1497 46.8077037,5.543 C47.2152963,5.9064 47.9558519,6.2997 49.0305185,6.72405 C50.3451481,7.2542 51.3107407,7.87405 51.9318889,8.58475 C52.5507407,9.29315 52.8595926,10.1798 52.8595926,11.2378 L52.8595926,11.2378 Z" id="Shape"></path>
                            <path d="M60.9528889,6.3342 L58.2547407,6.3342 L58.2547407,11.69205 C58.2547407,13.0548 58.7300741,13.7356 59.683037,13.7356 C60.1204815,13.7356 60.4832963,13.69765 60.7703333,13.62175 L60.8380741,15.4836 C60.3558519,15.66415 59.7209259,15.755 58.9344444,15.755 C57.9677037,15.755 57.2122222,15.45945 56.6668519,14.8695 C56.1237778,14.2784 55.8505185,13.2871 55.8505185,11.89445 L55.8505185,6.3319 L54.2431111,6.3319 L54.2431111,4.4919 L55.8505185,4.4919 L55.8505185,2.47135 L58.2547407,1.74455 L58.2547407,4.4919 L60.9528889,4.4919 L60.9528889,6.3342 L60.9528889,6.3342 Z" id="Shape"></path>
                            <path d="M73.1267037,9.92105 C73.1267037,11.6173 72.6421852,13.00995 71.6754444,14.099 C70.6616296,15.22025 69.316,15.77915 67.6385556,15.77915 C66.021963,15.77915 64.7348889,15.2421 63.775037,14.168 C62.8151852,13.0939 62.3352593,11.73805 62.3352593,10.1039 C62.3352593,8.39385 62.828963,6.99315 63.8198148,5.9041 C64.8083704,4.8139 66.1425185,4.2688 67.819963,4.2688 C69.4365556,4.2688 70.7374074,4.80585 71.7190741,5.8811 C72.6582593,6.92415 73.1267037,8.2708 73.1267037,9.92105 L73.1267037,9.92105 Z M70.587,10.0004 C70.587,8.98265 70.37,8.1098 69.9302593,7.38185 C69.417037,6.50095 68.6833704,6.06165 67.7327037,6.06165 C66.7487407,6.06165 66.0012963,6.5021 65.4880741,7.38185 C65.0483333,8.11095 64.8313333,8.9976 64.8313333,10.0464 C64.8313333,11.06415 65.0483333,11.937 65.4880741,12.6638 C66.0173704,13.5447 66.7567778,13.984 67.7108889,13.984 C68.6454815,13.984 69.3791481,13.5355 69.9084444,12.6408 C70.3596667,11.89905 70.587,11.017 70.587,10.0004 L70.587,10.0004 Z" id="Shape"></path>
                            <path d="M81.0833704,6.65045 C80.8411111,6.6056 80.5827778,6.5826 80.3118148,6.5826 C79.4507037,6.5826 78.7847778,6.90805 78.3163333,7.5601 C77.9087407,8.1351 77.7043704,8.8619 77.7043704,9.73935 L77.7043704,15.5296 L75.2576667,15.5296 L75.2806296,7.9695 C75.2806296,6.6976 75.2496296,5.53955 75.1887778,4.49535 L77.3208889,4.49535 L77.4104444,6.60675 L77.4781852,6.60675 C77.7365185,5.8811 78.1441111,5.2969 78.7021111,4.85875 C79.2474815,4.4643 79.8364815,4.26765 80.4714074,4.26765 C80.6975926,4.26765 80.901963,4.28375 81.0833704,4.3125 L81.0833704,6.65045 L81.0833704,6.65045 Z" id="Shape"></path>
                            <path d="M92.030963,9.4898 C92.030963,9.9291 92.0022593,10.2994 91.9414074,10.60185 L84.5978519,10.60185 C84.6265556,11.69205 84.9813333,12.5258 85.6633333,13.1008 C86.2821852,13.61485 87.0824444,13.87245 88.0652593,13.87245 C89.1525556,13.87245 90.1445556,13.6988 91.0366667,13.35035 L91.4201481,15.05235 C90.3776296,15.50775 89.1468148,15.7343 87.7265556,15.7343 C86.0181111,15.7343 84.6770741,15.2306 83.7011481,14.22435 C82.7275185,13.2181 82.2395556,11.86685 82.2395556,10.17175 C82.2395556,8.5077 82.6930741,7.12195 83.6012593,6.0168 C84.5519259,4.8369 85.8367037,4.24695 87.4532963,4.24695 C89.0411852,4.24695 90.2432963,4.8369 91.0596296,6.0168 C91.706037,6.95405 92.030963,8.11325 92.030963,9.4898 L92.030963,9.4898 Z M89.6967778,8.85385 C89.7128519,8.12705 89.5532593,7.49915 89.2214444,6.969 C88.7977778,6.28705 88.1467778,5.94665 87.2707407,5.94665 C86.4704815,5.94665 85.8194815,6.279 85.3223333,6.946 C84.9147407,7.47615 84.6724815,8.1121 84.5978519,8.8527 L89.6967778,8.8527 L89.6967778,8.85385 Z" id="Shape"></path>
                        </g>
                        <g id="Group" transform="translate(49.370370, 6.900000)" fill="#FFFFFF">
                            <path d="M6.9462963,4.61035 C6.9462963,5.9639 6.541,6.9828 5.73155556,7.66705 C4.98181481,8.2984 3.91633333,8.61465 2.53625926,8.61465 C1.85196296,8.61465 1.26640741,8.58475 0.776148148,8.52495 L0.776148148,1.1293 C1.41566667,1.0258 2.10455556,0.9729 2.84855556,0.9729 C4.16318519,0.9729 5.15403704,1.25925 5.82225926,1.83195 C6.57085185,2.4794 6.9462963,3.40515 6.9462963,4.61035 L6.9462963,4.61035 Z M5.67759259,4.6437 C5.67759259,3.76625 5.44566667,3.0935 4.98181481,2.6243 C4.51796296,2.15625 3.84055556,1.92165 2.94844444,1.92165 C2.56955556,1.92165 2.24692593,1.94695 1.97940741,1.99985 L1.97940741,7.6222 C2.12751852,7.6452 2.39848148,7.65555 2.7922963,7.65555 C3.71311111,7.65555 4.42381481,7.3991 4.92440741,6.8862 C5.425,6.3733 5.67759259,5.6258 5.67759259,4.6437 L5.67759259,4.6437 Z" id="Shape"></path>
                            <path d="M13.6732963,5.79255 C13.6732963,6.6263 13.4356296,7.3094 12.9602963,7.8453 C12.462,8.39615 11.8018148,8.671 10.9774444,8.671 C10.1829259,8.671 9.5502963,8.40765 9.07840741,7.87865 C8.60766667,7.3508 8.3722963,6.68495 8.3722963,5.88225 C8.3722963,5.04275 8.61455556,4.3539 9.10137037,3.81915 C9.58818519,3.2844 10.2426296,3.01645 11.067,3.01645 C11.8615185,3.01645 12.4998889,3.2798 12.9832593,3.80765 C13.4425185,4.32055 13.6732963,4.98295 13.6732963,5.79255 L13.6732963,5.79255 Z M12.4252593,5.83165 C12.4252593,5.3314 12.3173333,4.90245 12.1026296,4.5448 C11.850037,4.1124 11.4906667,3.8962 11.0233704,3.8962 C10.54,3.8962 10.1725926,4.1124 9.92,4.5448 C9.70414815,4.90245 9.59737037,5.3383 9.59737037,5.8535 C9.59737037,6.35375 9.7052963,6.7827 9.92,7.14035 C10.1806296,7.57275 10.5434444,7.78895 11.0118889,7.78895 C11.4711481,7.78895 11.8316667,7.5693 12.0911481,7.12885 C12.3138889,6.7643 12.4252593,6.3319 12.4252593,5.83165 L12.4252593,5.83165 Z" id="Shape"></path>
                            <path d="M22.6931481,3.12685 L20.9996296,8.54795 L19.8974074,8.54795 L19.1958889,6.1939 C19.0179259,5.60625 18.8732593,5.02205 18.7607407,4.44245 L18.7389259,4.44245 C18.6344444,5.03815 18.4897778,5.6212 18.3037778,6.1939 L17.5586296,8.54795 L16.4437778,8.54795 L14.8512963,3.12685 L16.0878519,3.12685 L16.6998148,5.704 C16.8479259,6.3135 16.9696296,6.89425 17.0672222,7.44395 L17.089037,7.44395 C17.1785926,6.99085 17.3267037,6.41355 17.5356667,5.7155 L18.3037778,3.128 L19.2842963,3.128 L20.0202593,5.6603 C20.1982222,6.27785 20.3428889,6.8724 20.4542593,7.4451 L20.4875556,7.4451 C20.5690741,6.88735 20.6919259,6.2928 20.854963,5.6603 L21.5117037,3.128 L22.6931481,3.128 L22.6931481,3.12685 Z" id="Shape"></path>
                            <path d="M28.931037,8.54795 L27.7277778,8.54795 L27.7277778,5.44295 C27.7277778,4.48615 27.364963,4.00775 26.637037,4.00775 C26.279963,4.00775 25.9917778,4.13885 25.7678889,4.4022 C25.5462963,4.66555 25.4337778,4.97605 25.4337778,5.3314 L25.4337778,8.5468 L24.2305185,8.5468 L24.2305185,4.6759 C24.2305185,4.1998 24.2155926,3.68345 24.1868889,3.12455 L25.2443333,3.12455 L25.3005926,3.9721 L25.3338889,3.9721 C25.473963,3.70875 25.6829259,3.4914 25.9573333,3.31775 C26.2834074,3.11535 26.6485185,3.013 27.0480741,3.013 C27.5532593,3.013 27.9734815,3.1763 28.3075926,3.50405 C28.7232222,3.9054 28.931037,4.50455 28.931037,5.30035 L28.931037,8.54795 L28.931037,8.54795 Z" id="Shape"></path>
                            <polygon id="Shape" points="32.2491852 8.54795 31.0470741 8.54795 31.0470741 0.6394 32.2491852 0.6394"></polygon>
                            <path d="M39.3332593,5.79255 C39.3332593,6.6263 39.0955926,7.3094 38.6202593,7.8453 C38.121963,8.39615 37.4606296,8.671 36.6374074,8.671 C35.8417407,8.671 35.2091111,8.40765 34.7383704,7.87865 C34.2676296,7.3508 34.0322593,6.68495 34.0322593,5.88225 C34.0322593,5.04275 34.2745185,4.3539 34.7613333,3.81915 C35.2481481,3.2844 35.9025926,3.01645 36.7258148,3.01645 C37.5214815,3.01645 38.1587037,3.2798 38.6432222,3.80765 C39.1024815,4.32055 39.3332593,4.98295 39.3332593,5.79255 L39.3332593,5.79255 Z M38.0840741,5.83165 C38.0840741,5.3314 37.9761481,4.90245 37.7614444,4.5448 C37.51,4.1124 37.1494815,3.8962 36.6833333,3.8962 C36.1988148,3.8962 35.8314074,4.1124 35.579963,4.5448 C35.3641111,4.90245 35.2573333,5.3383 35.2573333,5.8535 C35.2573333,6.35375 35.3652593,6.7827 35.579963,7.14035 C35.8405926,7.57275 36.2034074,7.78895 36.6718519,7.78895 C37.1311111,7.78895 37.4904815,7.5693 37.749963,7.12885 C37.9738519,6.7643 38.0840741,6.3319 38.0840741,5.83165 L38.0840741,5.83165 Z" id="Shape"></path>
                            <path d="M45.1566667,8.54795 L44.0762593,8.54795 L43.9867037,7.9235 L43.9534074,7.9235 C43.5837037,8.42145 43.0567037,8.671 42.3724074,8.671 C41.8614815,8.671 41.4481481,8.50655 41.137,8.17995 C40.8545556,7.88325 40.7133333,7.5141 40.7133333,7.07595 C40.7133333,6.41355 40.9888889,5.9087 41.5434444,5.5591 C42.0968519,5.2095 42.8752963,5.03815 43.8776296,5.0462 L43.8776296,4.945 C43.8776296,4.23085 43.5033333,3.87435 42.7535926,3.87435 C42.2197037,3.87435 41.748963,4.0089 41.3425185,4.2757 L41.097963,3.4845 C41.6008519,3.17285 42.222,3.01645 42.9545185,3.01645 C44.369037,3.01645 45.0785926,3.76395 45.0785926,5.25895 L45.0785926,7.25535 C45.0785926,7.797 45.105,8.22825 45.1566667,8.54795 L45.1566667,8.54795 Z M43.9074815,6.68495 L43.9074815,5.8489 C42.5802222,5.8259 41.9165926,6.19045 41.9165926,6.9414 C41.9165926,7.2243 41.9923704,7.4359 42.1473704,7.57735 C42.3023704,7.7188 42.4998519,7.78895 42.7352222,7.78895 C42.9992963,7.78895 43.2461481,7.705 43.4711852,7.53825 C43.6973704,7.37035 43.8362963,7.1576 43.887963,6.89655 C43.9005926,6.8379 43.9074815,6.7666 43.9074815,6.68495 L43.9074815,6.68495 Z" id="Shape"></path>
                            <path d="M51.9938889,8.54795 L50.9261111,8.54795 L50.8698519,7.6774 L50.8365556,7.6774 C50.4955556,8.3398 49.9145926,8.671 49.0982593,8.671 C48.4461111,8.671 47.903037,8.41455 47.4724815,7.90165 C47.0419259,7.38875 46.8272222,6.7229 46.8272222,5.90525 C46.8272222,5.0278 47.0602963,4.3171 47.5287407,3.7743 C47.9822593,3.2683 48.537963,3.0153 49.1992963,3.0153 C49.9260741,3.0153 50.4347037,3.26025 50.724037,3.7513 L50.747,3.7513 L50.747,0.6394 L51.9514074,0.6394 L51.9514074,7.08745 C51.9514074,7.6153 51.9651852,8.10175 51.9938889,8.54795 L51.9938889,8.54795 Z M50.747,6.26175 L50.747,5.35785 C50.747,5.20145 50.7355185,5.07495 50.7137037,4.97835 C50.645963,4.68855 50.5001481,4.44475 50.2785556,4.2481 C50.0546667,4.05145 49.7848519,3.95255 49.4737037,3.95255 C49.0247778,3.95255 48.6734444,4.1308 48.4151111,4.48845 C48.1590741,4.8461 48.0293333,5.30265 48.0293333,5.8604 C48.0293333,6.3963 48.1521852,6.831 48.399037,7.16565 C48.6596667,7.52215 49.011,7.7004 49.4507407,7.7004 C49.8457037,7.7004 50.1614444,7.55205 50.4014074,7.2542 C50.6333333,6.97935 50.747,6.64815 50.747,6.26175 L50.747,6.26175 Z" id="Shape"></path>
                            <path d="M62.2847407,5.79255 C62.2847407,6.6263 62.0470741,7.3094 61.5717407,7.8453 C61.0734444,8.39615 60.4144074,8.671 59.5888889,8.671 C58.7955185,8.671 58.1628889,8.40765 57.6898519,7.87865 C57.2191111,7.3508 56.9837407,6.68495 56.9837407,5.88225 C56.9837407,5.04275 57.226,4.3539 57.7128148,3.81915 C58.1996296,3.2844 58.8540741,3.01645 59.6795926,3.01645 C60.472963,3.01645 61.1124815,3.2798 61.5947037,3.80765 C62.053963,4.32055 62.2847407,4.98295 62.2847407,5.79255 L62.2847407,5.79255 Z M61.0378519,5.83165 C61.0378519,5.3314 60.9299259,4.90245 60.7152222,4.5448 C60.4614815,4.1124 60.1032593,3.8962 59.6348148,3.8962 C59.1525926,3.8962 58.7851852,4.1124 58.5314444,4.5448 C58.3155926,4.90245 58.2088148,5.3383 58.2088148,5.8535 C58.2088148,6.35375 58.3167407,6.7827 58.5314444,7.14035 C58.7920741,7.57275 59.1548889,7.78895 59.6233333,7.78895 C60.0825926,7.78895 60.4442593,7.5693 60.7037407,7.12885 C60.9253333,6.7643 61.0378519,6.3319 61.0378519,5.83165 L61.0378519,5.83165 Z" id="Shape"></path>
                            <path d="M68.7545556,8.54795 L67.5524444,8.54795 L67.5524444,5.44295 C67.5524444,4.48615 67.1896296,4.00775 66.4605556,4.00775 C66.1034815,4.00775 65.8152963,4.13885 65.5925556,4.4022 C65.3698148,4.66555 65.2584444,4.97605 65.2584444,5.3314 L65.2584444,8.5468 L64.054037,8.5468 L64.054037,4.6759 C64.054037,4.1998 64.0402593,3.68345 64.0115556,3.12455 L65.0678519,3.12455 L65.1241111,3.9721 L65.1574074,3.9721 C65.2986296,3.70875 65.5075926,3.4914 65.7808519,3.31775 C66.1080741,3.11535 66.472037,3.013 66.8727407,3.013 C67.3767778,3.013 67.797,3.1763 68.1311111,3.50405 C68.5478889,3.9054 68.7545556,4.50455 68.7545556,5.30035 L68.7545556,8.54795 L68.7545556,8.54795 Z" id="Shape"></path>
                            <path d="M76.8524444,4.0296 L75.5274815,4.0296 L75.5274815,6.6631 C75.5274815,7.3324 75.7628519,7.66705 76.229,7.66705 C76.4448519,7.66705 76.623963,7.64865 76.7651852,7.6107 L76.7961852,8.52495 C76.5585185,8.61465 76.2462222,8.6595 75.8615926,8.6595 C75.3862593,8.6595 75.0165556,8.5146 74.749037,8.2248 C74.4803704,7.935 74.3471852,7.4474 74.3471852,6.76315 L74.3471852,4.0296 L73.5561111,4.0296 L73.5561111,3.12685 L74.3471852,3.12685 L74.3471852,2.13325 L75.5263333,1.77675 L75.5263333,3.1257 L76.8512963,3.1257 L76.8512963,4.0296 L76.8524444,4.0296 Z" id="Shape"></path>
                            <path d="M83.2223704,8.54795 L82.017963,8.54795 L82.017963,5.46595 C82.017963,4.4942 81.6551481,4.00775 80.9283704,4.00775 C80.3703704,4.00775 79.9891852,4.2895 79.7802222,4.853 C79.7446296,4.97145 79.723963,5.11635 79.723963,5.28655 L79.723963,8.5468 L78.5218519,8.5468 L78.5218519,0.6394 L79.723963,0.6394 L79.723963,3.90655 L79.7469259,3.90655 C80.1258148,3.312 80.6688889,3.0153 81.3727037,3.0153 C81.871,3.0153 82.2831852,3.1786 82.6104074,3.50635 C83.018,3.9146 83.2223704,4.5218 83.2223704,5.3245 L83.2223704,8.54795 L83.2223704,8.54795 Z" id="Shape"></path>
                            <path d="M89.7932222,5.58095 C89.7932222,5.79715 89.7771481,5.97885 89.7484444,6.1272 L86.1398148,6.1272 C86.1558889,6.6631 86.3281111,7.07135 86.6622222,7.35425 C86.9676296,7.60725 87.3614444,7.73375 87.8436667,7.73375 C88.3775556,7.73375 88.8643704,7.64865 89.302963,7.4773 L89.4912593,8.3145 C88.978037,8.5376 88.3741111,8.64915 87.6748889,8.64915 C86.8367407,8.64915 86.1765556,8.4019 85.6989259,7.9074 C85.219,7.4129 84.9813333,6.74935 84.9813333,5.91675 C84.9813333,5.0991 85.2029259,4.4183 85.6495556,3.8755 C86.1157037,3.2959 86.746037,3.0061 87.5417037,3.0061 C88.3201481,3.0061 88.9114444,3.2959 89.311,3.8755 C89.6336296,4.3355 89.7932222,4.90475 89.7932222,5.58095 L89.7932222,5.58095 Z M88.6450741,5.2693 C88.6542593,4.91165 88.575037,4.60345 88.412,4.34355 C88.203037,4.0089 87.885,3.841 87.4544444,3.841 C87.0617778,3.841 86.7414444,4.0043 86.4968889,4.33205 C86.2971111,4.5931 86.1788519,4.90475 86.1398148,5.2693 L88.6450741,5.2693 L88.6450741,5.2693 Z" id="Shape"></path>
                        </g>
                    </g>
                </g>
            </g>
        </g>
    </g>
</svg>