<?xml version="1.0" encoding="UTF-8"?>
<svg width="10px" height="14px" viewBox="0 0 10 14" version="1.1" xmlns="http://www.w3.org/2000/svg" xmlns:xlink="http://www.w3.org/1999/xlink">
    <!-- Generator: Sketch Beta 41 (35307) - http://www.bohemiancoding.com/sketch -->
    <title>Group 4</title>
    <desc>Created with Sketch Beta.</desc>
    <defs></defs>
    <g id="Components" stroke="none" stroke-width="1" fill="none" fill-rule="evenodd">
        <g id="about-instructors" transform="translate(-574.000000, -33.000000)" fill="#FFFFFF">
            <g id="Group-3" transform="translate(540.000000, 0.000000)">
                <g id="Title">
                    <g id="back" transform="translate(20.000000, 20.000000)">
                        <g id="Group-4" transform="translate(14.000000, 12.000000)">
                            <polygon id="Shape" points="1.43933983 6.93933983 0.378679656 8 1.43933983 9.06066017 7.43933983 15.0606602 9.56066017 12.9393398 4.61999512 8.0017593 9.56066017 3.06066017 7.43933983 0.939339828"></polygon>
                        </g>
                    </g>
                </g>
            </g>
        </g>
    </g>
</svg>