<?xml version="1.0" encoding="UTF-8"?>
<svg width="20px" height="20px" viewBox="0 0 20 20" version="1.1" xmlns="http://www.w3.org/2000/svg" xmlns:xlink="http://www.w3.org/1999/xlink">
    <!-- Generator: Sketch 40.3 (33839) - http://www.bohemiancoding.com/sketch -->
    <title>instagram</title>
    <desc>Created with Sketch.</desc>
    <defs></defs>
    <g id="Components" stroke="none" stroke-width="1" fill="none" fill-rule="evenodd">
        <g id="all" transform="translate(-1376.000000, -428.000000)" fill="#0F0F0F">
            <g id="1">
                <g id="Social" transform="translate(1372.000000, 428.000000)">
                    <path d="M8.45663648,7.70001221 L6.29998779,7.70001221 L6.29998779,16.8985743 C6.29998779,17.3441069 6.66097531,17.7000122 7.10627598,17.7000122 L20.8936992,17.7000122 C21.3494021,17.7000122 21.6999874,17.3411962 21.6999874,16.8985743 L21.6999874,7.70001221 L19.5433635,7.70001221 C19.8375851,8.40833524 20,9.1852006 20,10 C20,13.3137085 17.3137085,16 14,16 C10.6862915,16 8,13.3137085 8,10 C8,9.1852006 8.16241492,8.40833524 8.45663648,7.70001221 Z M4,2.39260178 C4,1.0712043 5.07528687,0 6.39260178,0 L21.6073982,0 C22.9287957,0 24,1.07528687 24,2.39260178 L24,17.6073982 C24,18.9287957 22.9247131,20 21.6073982,20 L6.39260178,20 C5.0712043,20 4,18.9247131 4,17.6073982 L4,2.39260178 Z M17.9000244,3.10587005 C17.9000244,2.66079357 18.250708,2.29998779 18.7059067,2.29998779 L20.8941421,2.29998779 C21.3392186,2.29998779 21.7000244,2.65067138 21.7000244,3.10587005 L21.7000244,5.29410549 C21.7000244,5.73918197 21.3493408,6.09998775 20.8941421,6.09998775 L18.7059067,6.09998775 C18.2608302,6.09998775 17.9000244,5.74930416 17.9000244,5.29410549 L17.9000244,3.10587005 Z M13.9999878,13.6999879 C16.0434414,13.6999879 17.6999879,12.0434414 17.6999879,9.99998784 C17.6999879,7.95653424 16.0434414,6.29998779 13.9999878,6.29998779 C11.9565342,6.29998779 10.2999878,7.95653424 10.2999878,9.99998784 C10.2999878,12.0434414 11.9565342,13.6999879 13.9999878,13.6999879 Z" id="instagram"></path>
                </g>
            </g>
        </g>
    </g>
</svg>
