<?xml version="1.0" encoding="UTF-8"?>
<svg width="174px" height="66px" viewBox="0 0 174 66" version="1.1" xmlns="http://www.w3.org/2000/svg" xmlns:xlink="http://www.w3.org/1999/xlink">
    <!-- Generator: Sketch 40.3 (33839) - http://www.bohemiancoding.com/sketch -->
    <title>logo</title>
    <desc>Created with Sketch.</desc>
    <defs></defs>
    <g id="Components" stroke="none" stroke-width="1" fill="none" fill-rule="evenodd">
        <g id="all" transform="translate(-165.000000, 0.000000)">
            <g id="1">
                <g id="Menu">
                    <g id="Mask-&amp;-logo">
                        <g id="logo" transform="translate(165.000000, -26.000000)">
                            <g id="Group" transform="translate(48.000000, 43.500000)" fill="#0069D2">
                                <polygon id="Shape" points="13.2 0.6 13.2 4.1 8.7 4.1 8.7 30.5 5.1 30.5 5.1 4.1 0.6 4.1 0.6 0.6"></polygon>
                                <polygon id="Shape" points="43.4 12.1 43.4 30.4 40.1 30.4 40.1 12.1"></polygon>
                                <polygon id="Shape" points="43.4 9.7 43.4 5.4 40.1 5.4 40.1 9.7"></polygon>
                                <polygon id="Shape" points="125.6 12.1 125.6 30.4 122.3 30.4 122.3 12.1"></polygon>
                                <polygon id="Shape" points="125.6 9.7 125.6 5.4 122.3 5.4 122.3 9.7"></polygon>
                                <polygon id="Shape" points="57.4 20.2 57.4 0.6 61 0.6 61 30.5 57 30.5 51.3 10.9 51.3 30.5 47.7 30.5 47.7 0.6 51.7 0.6"></polygon>
                                <polygon id="Shape" points="77 0.6 77 4.1 68.6 4.1 68.6 13.7 77 13.7 77 30.5 65 30.5 65 27 73.4 27 73.4 17.2 65 17.2 65 0.7 77 0.7"></polygon>
                                <polygon id="Shape" points="102.4 0.6 102.4 4.1 94 4.1 94 13.7 102.4 13.7 102.4 30.5 90.4 30.5 90.4 27 98.8 27 98.8 17.2 90.4 17.2 90.4 0.7 102.4 0.7"></polygon>
                                <polygon id="Shape" points="109.9 30.5 106.3 30.5 106.3 0.6 109.9 0.6 109.9 13.6 112.2 13.6 116 0.6 119.8 0.6 115.2 15 120 30.4 116.1 30.4 112.1 17.1 109.8 17.1 109.8 30.5"></polygon>
                                <polygon id="Shape" points="29.4 30.5 33.1 30.5 37.8 0.6 34.2 0.6"></polygon>
                                <polygon id="Shape" points="33.1 30.5 29.4 30.5 24.7 0.6 28.3 0.6"></polygon>
                                <polygon id="Shape" points="19.9 30.5 23.6 30.5 28.3 0.6 24.7 0.6"></polygon>
                                <polygon id="Shape" points="23.6 30.5 19.9 30.5 15.2 0.6 18.8 0.6"></polygon>
                            </g>
                            <g id="Group-2">
                                <path d="M64.625,5.18470569 C42.125,-5.31196097 15.25,4.40137236 4.78125,27.118039 C-3.8125,45.448039 1.1875,66.7547057 15.40625,79.6013724 C6.96875,70.0447057 4.46875,55.9447057 10.25,43.568039 C17.90625,26.9613724 37.4375,19.7547057 54,27.4313724 C54,27.4313724 54.15625,27.4313724 54.15625,27.588039 C60.25,30.408039 67.59375,27.7447057 70.40625,21.6347057 C73.375,15.5247057 70.71875,8.16137236 64.625,5.18470569 L64.625,5.18470569 Z" id="Shape" fill="#F31C24"></path>
                                <path d="M27.125,62.2099996 C27.125,43.8799996 41.96875,28.9966663 60.25,28.9966663 L60.25,4.39999962 C35.40625,4.39999962 15.25,24.6099996 15.25,49.5199996 C15.25,69.8866663 28.6875,86.963333 46.96875,92.603333 C35.40625,87.433333 27.125,75.8399996 27.125,62.2099996 L27.125,62.2099996 Z" id="Shape" fill="#0069D2"></path>
                            </g>
                            <rect id="line" fill="#0069D2" x="60" y="26" width="114" height="3"></rect>
                        </g>
                    </g>
                </g>
            </g>
        </g>
    </g>
</svg>